%YAML 1.1
%TAG !u! tag:unity3d.com,2011:
--- !u!21 &2100000
Material:
  serializedVersion: 6
  m_ObjectHideFlags: 0
  m_CorrespondingSourceObject: {fileID: 0}
  m_PrefabInstance: {fileID: 0}
  m_PrefabAsset: {fileID: 0}
  m_Name: Brains_Material
  m_Shader: {fileID: 4800000, guid: 933532a4fcc9baf4fa0491de14d08ed7, type: 3}
  m_ShaderKeywords: _EMISSION _METALLICSPECGLOSSMAP _NORMALMAP _OCCLUSIONMAP _PARALLAXMAP
    _SPECULAR_SETUP
  m_LightmapFlags: 2
  m_EnableInstancingVariants: 0
  m_DoubleSidedGI: 0
  m_CustomRenderQueue: 2000
  stringTagMap:
    RenderType: Opaque
  disabledShaderPasses: []
  m_SavedProperties:
    serializedVersion: 3
    m_TexEnvs:
    - _Albedo_MaskA:
        m_Texture: {fileID: 0}
        m_Scale: {x: 1, y: 1}
        m_Offset: {x: 0, y: 0}
    - _BaseMap:
        m_Texture: {fileID: 2800000, guid: 204abc37f1ef2084c8551a7afbe60edc, type: 3}
        m_Scale: {x: 2, y: 2}
        m_Offset: {x: 0, y: 0}
    - _BaseSpecColGlossa:
        m_Texture: {fileID: 2800000, guid: 3d94dcdf086297049943a0b0e7566fad, type: 3}
        m_Scale: {x: 1, y: 1}
        m_Offset: {x: 0, y: 0}
    - _Base_Texture:
        m_Texture: {fileID: 2800000, guid: 204abc37f1ef2084c8551a7afbe60edc, type: 3}
        m_Scale: {x: 1, y: 1}
        m_Offset: {x: 0, y: 0}
    - _Base_normal_Map:
        m_Texture: {fileID: 2800000, guid: 4cba40c9f7d32254585baf3702bf4507, type: 3}
        m_Scale: {x: 1, y: 1}
        m_Offset: {x: 0, y: 0}
    - _BottomBumpMap:
        m_Texture: {fileID: 0}
        m_Scale: {x: 1, y: 1}
        m_Offset: {x: 0, y: 0}
    - _BottomEmissionMap:
        m_Texture: {fileID: 0}
        m_Scale: {x: 1, y: 1}
        m_Offset: {x: 0, y: 0}
    - _BottomMainTex:
        m_Texture: {fileID: 0}
        m_Scale: {x: 1, y: 1}
        m_Offset: {x: 0, y: 0}
    - _BottomSpecGlossMap:
        m_Texture: {fileID: 0}
        m_Scale: {x: 1, y: 1}
        m_Offset: {x: 0, y: 0}
    - _BumpMap:
        m_Texture: {fileID: 2800000, guid: 4cba40c9f7d32254585baf3702bf4507, type: 3}
        m_Scale: {x: 1, y: 1}
        m_Offset: {x: 0, y: 0}
    - _DetailAlbedoMap:
        m_Texture: {fileID: 0}
        m_Scale: {x: 4, y: 4}
        m_Offset: {x: 0, y: 0}
    - _DetailMask:
        m_Texture: {fileID: 0}
        m_Scale: {x: 1, y: 1}
        m_Offset: {x: 0, y: 0}
    - _DetailNormalMap:
        m_Texture: {fileID: 0}
        m_Scale: {x: 1, y: 1}
        m_Offset: {x: 0, y: 0}
    - _Detail_Map1:
        m_Texture: {fileID: 2800000, guid: 16c53fef92528674fbf2fab05e0bf9a7, type: 3}
        m_Scale: {x: 1, y: 1}
        m_Offset: {x: 0, y: 0}
    - _Detail_Map2:
        m_Texture: {fileID: 0}
        m_Scale: {x: 1, y: 1}
        m_Offset: {x: 0, y: 0}
    - _Detail_Map3:
        m_Texture: {fileID: 0}
        m_Scale: {x: 1, y: 1}
        m_Offset: {x: 0, y: 0}
    - _Detail_Norm1:
        m_Texture: {fileID: 0}
        m_Scale: {x: 1, y: 1}
        m_Offset: {x: 0, y: 0}
    - _Detail_Norm2:
        m_Texture: {fileID: 0}
        m_Scale: {x: 1, y: 1}
        m_Offset: {x: 0, y: 0}
    - _Detail_Norm3:
        m_Texture: {fileID: 0}
        m_Scale: {x: 1, y: 1}
        m_Offset: {x: 0, y: 0}
    - _Diffuse:
        m_Texture: {fileID: 2800000, guid: 66321cc856b03e245ac41ed8a53e0ecc, type: 3}
        m_Scale: {x: 1, y: 1}
        m_Offset: {x: 0, y: 0}
    - _EmissionMap:
        m_Texture: {fileID: 2800000, guid: 204abc37f1ef2084c8551a7afbe60edc, type: 3}
        m_Scale: {x: 2, y: 2}
        m_Offset: {x: 0, y: 0}
    - _MainTex:
        m_Texture: {fileID: 2800000, guid: 204abc37f1ef2084c8551a7afbe60edc, type: 3}
        m_Scale: {x: 2, y: 2}
        m_Offset: {x: 0, y: 0}
    - _MaskMixerrgb_AOa:
        m_Texture: {fileID: 2800000, guid: 16c53fef92528674fbf2fab05e0bf9a7, type: 3}
        m_Scale: {x: 1, y: 1}
        m_Offset: {x: 0, y: 0}
    - _MetallicGlossMap:
        m_Texture: {fileID: 0}
        m_Scale: {x: 1, y: 1}
        m_Offset: {x: 0, y: 0}
    - _Normal:
        m_Texture: {fileID: 2800000, guid: cb6c5165ed180c543be39ed70e72abc8, type: 3}
        m_Scale: {x: 1, y: 1}
        m_Offset: {x: 0, y: 0}
    - _NormalMap:
        m_Texture: {fileID: 0}
        m_Scale: {x: 1, y: 1}
        m_Offset: {x: 0, y: 0}
    - _OcclusionMap:
        m_Texture: {fileID: 2800000, guid: 19b640978e503864fb00091c821c4935, type: 3}
        m_Scale: {x: 1, y: 1}
        m_Offset: {x: 0, y: 0}
    - _ParallaxMap:
        m_Texture: {fileID: 2800000, guid: 16c53fef92528674fbf2fab05e0bf9a7, type: 3}
        m_Scale: {x: 1, y: 1}
        m_Offset: {x: 0, y: 0}
    - _SpecGlossMap:
        m_Texture: {fileID: 2800000, guid: 3d94dcdf086297049943a0b0e7566fad, type: 3}
        m_Scale: {x: 1, y: 1}
        m_Offset: {x: 0, y: 0}
    - _TopBumpMap:
        m_Texture: {fileID: 0}
        m_Scale: {x: 1, y: 1}
        m_Offset: {x: 0, y: 0}
    - _TopEmissionMap:
        m_Texture: {fileID: 0}
        m_Scale: {x: 1, y: 1}
        m_Offset: {x: 0, y: 0}
    - _TopMainTex:
        m_Texture: {fileID: 0}
        m_Scale: {x: 1, y: 1}
        m_Offset: {x: 0, y: 0}
    - _TopSpecGlossMap:
        m_Texture: {fileID: 0}
        m_Scale: {x: 1, y: 1}
        m_Offset: {x: 0, y: 0}
    - unity_Lightmaps:
        m_Texture: {fileID: 0}
        m_Scale: {x: 1, y: 1}
        m_Offset: {x: 0, y: 0}
    - unity_LightmapsInd:
        m_Texture: {fileID: 0}
        m_Scale: {x: 1, y: 1}
        m_Offset: {x: 0, y: 0}
    - unity_ShadowMasks:
        m_Texture: {fileID: 0}
        m_Scale: {x: 1, y: 1}
        m_Offset: {x: 0, y: 0}
    m_Floats:
    - _AO_boost: 1
    - _AlphaClip: 0
    - _Base_Gloss: 0.5555561
    - _Blend: 0
    - _BottomBumpScale: 1
    - _BottomEmissionScaleUI: 0
    - _BottomGlossiness: 0.5
    - _BottomMultiplier: 0
    - _BottomUsingSpecGlossMap: 0
    - _BumpScale: 3
    - _ClearCoatMask: 0
    - _ClearCoatSmoothness: 0
    - _Cull: 2
    - _Cutoff: 0.5
    - _Detail1_strength: 0.5631068
    - _Detail2_strength: 0.5
    - _Detail3_strength: 0.8241895
    - _DetailAlbedoMapScale: 1
    - _DetailGloss1: 0.6407767
    - _DetailGloss2: 0.7112322
    - _DetailGloss3: 0.4144778
    - _DetailNormalMapScale: 1
    - _Dirt_Gloss: 0.1
    - _Dirt_Top: 0
    - _DstBlend: 0
    - _EmissionScaleUI: 0.48
    - _EnvironmentReflections: 1
    - _GlossMapScale: 1
    - _Glossiness: 0.5
    - _GlossyReflections: 1
    - _Metallic: 0
    - _Mode: 0
    - _Norm1Strength: 1
    - _Norm2Strength: 1
    - _Norm3Strength: 1
    - _OcclusionStrength: 1
    - _Parallax: 0.005
    - _QueueOffset: 0
    - _ReceiveShadows: 1
    - _Smoothness: 0
    - _SmoothnessTextureChannel: 0
    - _SpecularHighlights: 1
    - _SrcBlend: 1
    - _Surface: 0
    - _SwitchUpDown: 0
    - _TexPower: 10
    - _TopBumpScale: 1
    - _TopEmissionScaleUI: 0
    - _TopGlossiness: 0.5
    - _TopMultiplier: 1
    - _TopUsingSpecGlossMap: 0
    - _TriplanarSpace: 0
    - _UVSec: 0
    - _UsingSpecGlossMap: 1
    - _VertexColorStrength: 1
    - _WorkflowMode: 0
    - _ZWrite: 1
    m_Colors:
    - _BaseColor: {r: 0.41509432, g: 0.18600924, b: 0.18600924, a: 1}
    - _Base_Color: {r: 33333, g: 1, b: 1, a: 1}
    - _Base_Color_Tint: {r: 0.8, g: 0.7, b: 0.5, a: 1}
    - _Base_SpecColor: {r: 0, g: 0, b: 0, a: 0}
    - _BottomColor: {r: 1, g: 1, b: 1, a: 1}
    - _BottomEmissionColor: {r: 0, g: 0, b: 0, a: 0}
    - _BottomEmissionColorUI: {r: 1, g: 1, b: 1, a: 1}
    - _BottomSpecColor: {r: 0.2, g: 0.2, b: 0.2, a: 1}
    - _Color: {r: 1, g: 0.63235295, b: 0.63235295, a: 1}
    - _DetailSpecCol1: {r: 1, g: 1, b: 1, a: 1}
    - _DetailSpecCol2: {r: 0.1172414, g: 1, b: 0, a: 1}
    - _DetailSpecCol3: {r: 0, g: 0, b: 1, a: 1}
    - _Dirt_Color: {r: 1, g: 1, b: 1, a: 1}
    - _Dirt_SpecCol: {r: 0.128, g: 0.134, b: 0.147, a: 1}
    - _EmissionColor: {r: 0.047169805, g: 0.008053381, b: 0, a: 0.48}
    - _EmissionColorUI: {r: 1, g: 1, b: 1, a: 1}
    - _Mask1_color: {r: 1, g: 1, b: 1, a: 1}
    - _Mask2_color: {r: 0.05082181, g: 0.6911765, b: 0.1082329, a: 1}
    - _Mask3_color: {r: 0.04974049, g: 0.3912004, b: 0.6764706, a: 1}
    - _SpecColor: {r: 0.2, g: 0.2, b: 0.2, a: 1}
    - _Spec_Color_Gloss: {r: 0.5, g: 0.5, b: 0.5, a: 1}
    - _TopColor: {r: 1, g: 1, b: 1, a: 1}
    - _TopEmissionColor: {r: 0, g: 0, b: 0, a: 0}
    - _TopEmissionColorUI: {r: 1, g: 1, b: 1, a: 1}
    - _TopSpecColor: {r: 0.2, g: 0.2, b: 0.2, a: 1}
  m_BuildTextureStacks: []
--- !u!114 &7550222838684015438
MonoBehaviour:
  m_ObjectHideFlags: 11
  m_CorrespondingSourceObject: {fileID: 0}
  m_PrefabInstance: {fileID: 0}
  m_PrefabAsset: {fileID: 0}
  m_GameObject: {fileID: 0}
  m_Enabled: 1
  m_EditorHideFlags: 0
  m_Script: {fileID: 11500000, guid: d0353a89b1f911e48b9e16bdc9f2e058, type: 3}
  m_Name: 
  m_EditorClassIdentifier: 
  version: 4
