%YAML 1.1
%TAG !u! tag:unity3d.com,2011:
--- !u!1045 &1
EditorBuildSettings:
  m_ObjectHideFlags: 0
  serializedVersion: 2
  m_Scenes:
  - enabled: 1
    path: Assets/Scenes/SpokyMenu.unity
    guid: 5c9be6922071963428ac3336e8e3c720
  - enabled: 1
    path: Assets/Scenes/Spoky.unity
    guid: f6890ab49fcafcf4b9745b82d1cf3e7b
  - enabled: 1
    path: Assets/Plugins/Feel/MMTools/Tools/MMSceneLoading/LoadingScreens/MMAdditiveLoadingScreenFastFade.unity
    guid: 8101c376367d6e44f84e602722e5ac10
  m_configObjects:
    Unity.XR.Oculus.Settings: {fileID: 11400000, guid: 2462e2f59f6390e49992c082e411a4bc, type: 2}
    com.unity.xr.management.loader_settings: {fileID: 11400000, guid: 98f367552624f3e48b343613c3cd2b23, type: 2}
    xr.sdk.mock-hmd.settings: {fileID: 11400000, guid: 2d9be20190219ed488665ec78407e8e3, type: 2}
